systemc-2.3.2/examples/doulos/sc/ex6/part4/bus_system.vcd
$date
     May 23, 2018       22:52:33
$end

$version
 SystemC 2.3.2-Accellera --- May  1 2018 20:53:39
$end

$timescale
     1 ps
$end

$scope module SystemC $end
$var wire    1  aaaaa  clock       $end
$scope module top1 $end
$var wire    8  aaaab  ram0(0) [7:0]  $end
$var wire    8  aaaac  ram0(1) [7:0]  $end
$var wire    8  aaaad  ram0(2) [7:0]  $end
$var wire    8  aaaae  ram0(3) [7:0]  $end
$var wire    8  aaaaf  ram0(4) [7:0]  $end
$var wire    8  aaaag  ram0(5) [7:0]  $end
$var wire    8  aaaah  ram0(6) [7:0]  $end
$var wire    8  aaaai  ram0(7) [7:0]  $end
$var wire    8  aaaaj  ram0(8) [7:0]  $end
$var wire    8  aaaak  ram0(9) [7:0]  $end
$var wire    8  aaaal  ram0(10) [7:0]  $end
$var wire    8  aaaam  ram0(11) [7:0]  $end
$var wire    8  aaaan  ram0(12) [7:0]  $end
$var wire    8  aaaao  ram0(13) [7:0]  $end
$var wire    8  aaaap  ram0(14) [7:0]  $end
$var wire    8  aaaaq  ram0(15) [7:0]  $end
$var wire    8  aaaar  ram0(16) [7:0]  $end
$var wire    8  aaaas  ram0(17) [7:0]  $end
$var wire    8  aaaat  ram0(18) [7:0]  $end
$var wire    8  aaaau  ram0(19) [7:0]  $end
$var wire    8  aaaav  ram0(20) [7:0]  $end
$var wire    8  aaaaw  ram0(21) [7:0]  $end
$var wire    8  aaaax  ram0(22) [7:0]  $end
$var wire    8  aaaay  ram0(23) [7:0]  $end
$var wire    8  aaaaz  ram0(24) [7:0]  $end
$var wire    8  aaaba  ram0(25) [7:0]  $end
$var wire    8  aaabb  ram0(26) [7:0]  $end
$var wire    8  aaabc  ram0(27) [7:0]  $end
$var wire    8  aaabd  ram0(28) [7:0]  $end
$var wire    8  aaabe  ram0(29) [7:0]  $end
$var wire    8  aaabf  ram0(30) [7:0]  $end
$var wire    8  aaabg  ram0(31) [7:0]  $end
$upscope $end
$upscope $end
$enddefinitions  $end

$comment
All initial values are dumped below at time 0 sec = 0 timescale units.
$end

$dumpvars
1aaaaa
b0 aaaab
b0 aaaac
b0 aaaad
b0 aaaae
b0 aaaaf
b0 aaaag
b0 aaaah
b0 aaaai
b0 aaaaj
b0 aaaak
b0 aaaal
b0 aaaam
b0 aaaan
b0 aaaao
b0 aaaap
b0 aaaaq
b0 aaaar
b0 aaaas
b0 aaaat
b0 aaaau
b0 aaaav
b0 aaaaw
b0 aaaax
b0 aaaay
b0 aaaaz
b0 aaaba
b0 aaabb
b0 aaabc
b0 aaabd
b0 aaabe
b0 aaabf
b0 aaabg
$end

#50000
0aaaaa

#100000
1aaaaa

#150000
0aaaaa
b10100011 aaaab

#200000
1aaaaa

#250000
0aaaaa

#300000
1aaaaa

#350000
0aaaaa
b10010111 aaaac

#400000
1aaaaa

#450000
0aaaaa

#500000
1aaaaa

#550000
0aaaaa
b10100010 aaaad

#600000
1aaaaa

#650000
0aaaaa

#700000
1aaaaa

#750000
0aaaaa
b1010101 aaaae

#800000
1aaaaa

#850000
0aaaaa

#900000
1aaaaa

#950000
0aaaaa
b1010011 aaaaf

#1000000
1aaaaa

#1050000
0aaaaa

#1100000
1aaaaa

#1150000
0aaaaa
b10111110 aaaag

#1200000
1aaaaa

#1250000
0aaaaa

#1300000
1aaaaa

#1350000
0aaaaa
b11110001 aaaah

#1400000
1aaaaa

#1450000
0aaaaa

#1500000
1aaaaa

#1550000
0aaaaa
b11111100 aaaai

#1600000
1aaaaa

#1650000
0aaaaa

#1700000
1aaaaa

#1750000
0aaaaa
b11111001 aaaaj

#1800000
1aaaaa

#1850000
0aaaaa

#1900000
1aaaaa

#1950000
0aaaaa
b1111001 aaaak

#2000000
1aaaaa

#2050000
0aaaaa

#2100000
1aaaaa

#2150000
0aaaaa
b1101011 aaaal

#2200000
1aaaaa

#2250000
0aaaaa

#2300000
1aaaaa

#2350000
0aaaaa
b1010010 aaaam

#2400000
1aaaaa

#2450000
0aaaaa

#2500000
1aaaaa

#2550000
0aaaaa

#2600000
1aaaaa

#2650000
0aaaaa

#2700000
1aaaaa

#2750000
0aaaaa

#2800000
1aaaaa

#2850000
0aaaaa

#2900000
1aaaaa

#2950000
0aaaaa

#3000000
1aaaaa

#3050000
0aaaaa
b10100011 aaaar

#3100000
1aaaaa

#3150000
0aaaaa

#3200000
1aaaaa

#3250000
0aaaaa

#3300000
1aaaaa

#3350000
0aaaaa

#3400000
1aaaaa

#3450000
0aaaaa
b10010111 aaaas

#3500000
1aaaaa

#3550000
0aaaaa

#3600000
1aaaaa

#3650000
0aaaaa

#3700000
1aaaaa

#3750000
0aaaaa

#3800000
1aaaaa

#3850000
0aaaaa

#3900000
1aaaaa

#3950000
0aaaaa

#4000000
1aaaaa

#4050000
0aaaaa
b1010101 aaaat

#4100000
1aaaaa

#4150000
0aaaaa

#4200000
1aaaaa

#4250000
0aaaaa

#4300000
1aaaaa

#4350000
0aaaaa

#4400000
1aaaaa

#4450000
0aaaaa
b1010011 aaaau

#4500000
1aaaaa

#4550000
0aaaaa

#4600000
1aaaaa

#4650000
0aaaaa

#4700000
1aaaaa

#4750000
0aaaaa

#4800000
1aaaaa

#4850000
0aaaaa

#4900000
1aaaaa

#4950000
0aaaaa

#5000000
1aaaaa

#5050000
0aaaaa
b11110001 aaaav

#5100000
1aaaaa

#5150000
0aaaaa

#5200000
1aaaaa

#5250000
0aaaaa

#5300000
1aaaaa

#5350000
0aaaaa

#5400000
1aaaaa

#5450000
0aaaaa

#5500000
1aaaaa

#5550000
0aaaaa

#5600000
1aaaaa

#5650000
0aaaaa
b11111001 aaaaw

#5700000
1aaaaa

#5750000
0aaaaa

#5800000
1aaaaa

#5850000
0aaaaa

#5900000
1aaaaa

#5950000
0aaaaa

#6000000
1aaaaa

#6050000
0aaaaa
b1111001 aaaax

#6100000
1aaaaa

#6150000
0aaaaa

#6200000
1aaaaa

#6250000
0aaaaa

#6300000
1aaaaa

#6350000
0aaaaa

#6400000
1aaaaa

#6450000
0aaaaa
b1101011 aaaay

#6500000
1aaaaa

#6550000
0aaaaa

#6600000
1aaaaa

#6650000
0aaaaa

#6700000
1aaaaa

#6750000
0aaaaa

#6800000
1aaaaa

#6850000
0aaaaa

#6900000
1aaaaa

#6950000
0aaaaa

#7000000
1aaaaa

#7050000
0aaaaa

#7100000
1aaaaa

#7150000
0aaaaa

#7200000
1aaaaa

#7250000
0aaaaa

#7300000
1aaaaa

#7350000
0aaaaa
b10100 aaaab

#7400000
1aaaaa

#7450000
0aaaaa

#7500000
1aaaaa

#7550000
0aaaaa
b10011 aaaac

#7600000
1aaaaa

#7650000
0aaaaa

#7700000
1aaaaa

#7750000
0aaaaa
b11101001 aaaad

#7800000
1aaaaa

#7850000
0aaaaa

#7900000
1aaaaa

#7950000
0aaaaa
b11100010 aaaae

#8000000
1aaaaa

#8050000
0aaaaa

#8100000
1aaaaa

#8150000
0aaaaa
b101101 aaaaf

#8200000
1aaaaa

#8250000
0aaaaa

#8300000
1aaaaa

#8350000
0aaaaa
b1010001 aaaag

#8400000
1aaaaa

#8450000
0aaaaa

#8500000
1aaaaa

#8550000
0aaaaa
b10001110 aaaah

#8600000
1aaaaa

#8650000
0aaaaa

#8700000
1aaaaa

#8750000
0aaaaa
b11111 aaaai

#8800000
1aaaaa

#8850000
0aaaaa

#8900000
1aaaaa

#8950000
0aaaaa
b1010110 aaaaj

#9000000
1aaaaa

#9050000
0aaaaa

#9100000
1aaaaa

#9150000
0aaaaa
b1000 aaaak

#9200000
1aaaaa

#9250000
0aaaaa

#9300000
1aaaaa

#9350000
0aaaaa
b1010111 aaaal

#9400000
1aaaaa

#9450000
0aaaaa

#9500000
1aaaaa

#9550000
0aaaaa
b100111 aaaam

#9600000
1aaaaa

#9650000
0aaaaa

#9700000
1aaaaa

#9750000
0aaaaa

#9800000
1aaaaa

#9850000
0aaaaa

#9900000
1aaaaa

#9950000
0aaaaa

#10000000
1aaaaa

#10050000
0aaaaa

#10100000
1aaaaa

#10150000
0aaaaa

#10200000
1aaaaa

#10250000
0aaaaa

#10300000
1aaaaa

#10350000
0aaaaa

#10400000
1aaaaa

#10450000
0aaaaa
b10011 aaaar

#10500000
1aaaaa

#10550000
0aaaaa

#10600000
1aaaaa

#10650000
0aaaaa

#10700000
1aaaaa

#10750000
0aaaaa

#10800000
1aaaaa

#10850000
0aaaaa
b11101001 aaaas

#10900000
1aaaaa

#10950000
0aaaaa

#11000000
1aaaaa

#11050000
0aaaaa

#11100000
1aaaaa

#11150000
0aaaaa

#11200000
1aaaaa

#11250000
0aaaaa

#11300000
1aaaaa

#11350000
0aaaaa

#11400000
1aaaaa

#11450000
0aaaaa
b101101 aaaat

#11500000
1aaaaa

#11550000
0aaaaa

#11600000
1aaaaa

#11650000
0aaaaa

#11700000
1aaaaa

#11750000
0aaaaa

#11800000
1aaaaa

#11850000
0aaaaa
b1010001 aaaau

#11900000
1aaaaa

#11950000
0aaaaa

#12000000
1aaaaa

#12050000
0aaaaa

#12100000
1aaaaa

#12150000
0aaaaa

#12200000
1aaaaa

#12250000
0aaaaa

#12300000
1aaaaa

#12350000
0aaaaa

#12400000
1aaaaa

#12450000
0aaaaa
b11111 aaaav

#12500000
1aaaaa

#12550000
0aaaaa

#12600000
1aaaaa

#12650000
0aaaaa

#12700000
1aaaaa

#12750000
0aaaaa

#12800000
1aaaaa

#12850000
0aaaaa

#12900000
1aaaaa

#12950000
0aaaaa

#13000000
1aaaaa

#13050000
0aaaaa

#13100000
1aaaaa

#13150000
0aaaaa

#13200000
1aaaaa

#13250000
0aaaaa
b1010111 aaaaw

#13300000
1aaaaa

#13350000
0aaaaa

#13400000
1aaaaa

#13450000
0aaaaa

#13500000
1aaaaa

#13550000
0aaaaa

#13600000
1aaaaa

#13650000
0aaaaa
b100111 aaaax

#13700000
1aaaaa

#13750000
0aaaaa

#13800000
1aaaaa

#13850000
0aaaaa

#13900000
1aaaaa

#13950000
0aaaaa

#14000000
1aaaaa

#14050000
0aaaaa

#14100000
1aaaaa

#14150000
0aaaaa

#14200000
1aaaaa

#14250000
0aaaaa

#14300000
1aaaaa

#14350000
0aaaaa
b10100111 aaaab

#14400000
1aaaaa

#14450000
0aaaaa

#14500000
1aaaaa

#14550000
0aaaaa
b101 aaaac

#14600000
1aaaaa

#14650000
0aaaaa

#14700000
1aaaaa

#14750000
0aaaaa
b11010100 aaaad

#14800000
1aaaaa

#14850000
0aaaaa

#14900000
1aaaaa

#14950000
0aaaaa
b11010000 aaaae

#15000000
1aaaaa

#15050000
0aaaaa

#15100000
1aaaaa

#15150000
0aaaaa
b1010010 aaaaf

#15200000
1aaaaa

#15250000
0aaaaa

#15300000
1aaaaa

#15350000
0aaaaa
b10000010 aaaag

#15400000
1aaaaa

#15450000
0aaaaa

#15500000
1aaaaa

#15550000
0aaaaa
b1110111 aaaah

#15600000
1aaaaa

#15650000
0aaaaa

#15700000
1aaaaa

#15750000
0aaaaa
b1110101 aaaai

#15800000
1aaaaa

#15850000
0aaaaa

#15900000
1aaaaa

#15950000
0aaaaa
b11011 aaaaj

#16000000
1aaaaa

#16050000
0aaaaa

#16100000
1aaaaa

#16150000
0aaaaa
b10011001 aaaak

#16200000
1aaaaa

#16250000
0aaaaa

#16300000
1aaaaa

#16350000
0aaaaa
b1001010 aaaal

#16400000
1aaaaa

#16450000
0aaaaa

#16500000
1aaaaa

#16550000
0aaaaa
b11101101 aaaam

#16600000
1aaaaa

#16650000
0aaaaa

#16700000
1aaaaa

#16750000
0aaaaa

#16800000
1aaaaa

#16850000
0aaaaa

#16900000
1aaaaa

#16950000
0aaaaa

#17000000
1aaaaa

#17050000
0aaaaa

#17100000
1aaaaa

#17150000
0aaaaa

#17200000
1aaaaa

#17250000
0aaaaa
b10100111 aaaar

#17300000
1aaaaa

#17350000
0aaaaa

#17400000
1aaaaa

#17450000
0aaaaa

#17500000
1aaaaa

#17550000
0aaaaa

#17600000
1aaaaa

#17650000
0aaaaa
b101 aaaas

#17700000
1aaaaa

#17750000
0aaaaa

#17800000
1aaaaa

#17850000
0aaaaa

#17900000
1aaaaa

#17950000
0aaaaa

#18000000
1aaaaa

#18050000
0aaaaa

#18100000
1aaaaa

#18150000
0aaaaa

#18200000
1aaaaa

#18250000
0aaaaa

#18300000
1aaaaa

#18350000
0aaaaa

#18400000
1aaaaa

#18450000
0aaaaa

#18500000
1aaaaa

#18550000
0aaaaa

#18600000
1aaaaa

#18650000
0aaaaa

#18700000
1aaaaa

#18750000
0aaaaa

#18800000
1aaaaa

#18850000
0aaaaa
b1110111 aaaat

#18900000
1aaaaa

#18950000
0aaaaa

#19000000
1aaaaa

#19050000
0aaaaa

#19100000
1aaaaa

#19150000
0aaaaa

#19200000
1aaaaa

#19250000
0aaaaa
b1110101 aaaau

#19300000
1aaaaa

#19350000
0aaaaa

#19400000
1aaaaa

#19450000
0aaaaa

#19500000
1aaaaa

#19550000
0aaaaa

#19600000
1aaaaa

#19650000
0aaaaa
b11011 aaaav

#19700000
1aaaaa

#19750000
0aaaaa

#19800000
1aaaaa

#19850000
0aaaaa

#19900000
1aaaaa

#19950000
0aaaaa

#20000000
1aaaaa

#20050000
0aaaaa
b10011001 aaaaw

#20100000
1aaaaa

#20150000
0aaaaa

#20200000
1aaaaa

#20250000
0aaaaa

#20300000
1aaaaa

#20350000
0aaaaa

#20400000
1aaaaa

#20450000
0aaaaa

#20500000
1aaaaa

#20550000
0aaaaa

#20600000
1aaaaa

#20650000
0aaaaa
b11101101 aaaax

#20700000
1aaaaa

#20750000
0aaaaa

#20800000
1aaaaa

#20850000
0aaaaa

#20900000
1aaaaa

#20950000
0aaaaa

#21000000
1aaaaa

#21050000
0aaaaa

#21100000
1aaaaa

#21150000
0aaaaa

#21200000
1aaaaa

#21250000
0aaaaa

#21300000
1aaaaa

#21350000
0aaaaa
b1011000 aaaab

#21400000
1aaaaa

#21450000
0aaaaa

#21500000
1aaaaa

#21550000
0aaaaa
b111101 aaaac

#21600000
1aaaaa

#21650000
0aaaaa

#21700000
1aaaaa

#21750000
0aaaaa
b1101010 aaaad

#21800000
1aaaaa

#21850000
0aaaaa

#21900000
1aaaaa

#21950000
0aaaaa
b1010010 aaaae

#22000000
1aaaaa

#22050000
0aaaaa

#22100000
1aaaaa

#22150000
0aaaaa
b110110 aaaaf

#22200000
1aaaaa

#22250000
0aaaaa

#22300000
1aaaaa

#22350000
0aaaaa
b11010101 aaaag

#22400000
1aaaaa

#22450000
0aaaaa

#22500000
1aaaaa

#22550000
0aaaaa
b100100 aaaah

#22600000
1aaaaa

#22650000
0aaaaa

#22700000
1aaaaa

#22750000
0aaaaa
b1001010 aaaai

#22800000
1aaaaa

#22850000
0aaaaa

#22900000
1aaaaa

#22950000
0aaaaa
b1101000 aaaaj

#23000000
1aaaaa

#23050000
0aaaaa

#23100000
1aaaaa

#23150000
0aaaaa
b10001110 aaaak

#23200000
1aaaaa

#23250000
0aaaaa

#23300000
1aaaaa

#23350000
0aaaaa
b10101101 aaaal

#23400000
1aaaaa

#23450000
0aaaaa

#23500000
1aaaaa

#23550000
0aaaaa
b10010101 aaaam

#23600000
1aaaaa

#23650000
0aaaaa

#23700000
1aaaaa

#23750000
0aaaaa

#23800000
1aaaaa

#23850000
0aaaaa

#23900000
1aaaaa

#23950000
0aaaaa

#24000000
1aaaaa

#24050000
0aaaaa

#24100000
1aaaaa

#24150000
0aaaaa

#24200000
1aaaaa

#24250000
0aaaaa

#24300000
1aaaaa

#24350000
0aaaaa

#24400000
1aaaaa

#24450000
0aaaaa
b111101 aaaar

