ext/doulos/sc/ex4/trace.vcd
$date
     May 23, 2018       18:07:10
$end

$version
 SystemC 2.3.2-Accellera --- May  1 2018 20:53:39
$end

$timescale
     1 ps
$end

$scope module SystemC $end
$var wire    1  aaaaa  clock       $end
$var wire    8  aaaab  count [7:0]  $end
$var wire    8  aaaac  data [7:0]  $end
$var wire    1  aaaad  odd       $end
$upscope $end
$enddefinitions  $end

$comment
All initial values are dumped below at time 0 sec = 0 timescale units.
$end

$dumpvars
1aaaaa
b10 aaaab
b0 aaaac
0aaaad
$end

#5000
0aaaaa

#10000
1aaaaa
b11 aaaab
1aaaad

#15000
0aaaaa

#20000
1aaaaa
b100 aaaab
b1 aaaac
0aaaad

#25000
0aaaaa

#30000
1aaaaa
b101 aaaab
1aaaad

#35000
0aaaaa

#40000
1aaaaa
b110 aaaab
b10 aaaac
0aaaad

#45000
0aaaaa

#50000
1aaaaa
b111 aaaab
1aaaad

#55000
0aaaaa

#60000
1aaaaa
b1000 aaaab
b11 aaaac
0aaaad

#65000
0aaaaa

#70000
1aaaaa
b1001 aaaab
1aaaad

#75000
0aaaaa

#80000
1aaaaa
b1010 aaaab
b100 aaaac
0aaaad

#85000
0aaaaa

#90000
1aaaaa
b1011 aaaab
1aaaad

#95000
0aaaaa

#100000
1aaaaa
b1100 aaaab
b101 aaaac
0aaaad

#105000
0aaaaa

#110000
1aaaaa
b1101 aaaab
1aaaad

#115000
0aaaaa

#120000
1aaaaa
b1110 aaaab
b110 aaaac
0aaaad

#125000
0aaaaa

#130000
1aaaaa
b1111 aaaab
1aaaad

#135000
0aaaaa

#140000
1aaaaa
b10000 aaaab
b1000 aaaac
0aaaad

#145000
0aaaaa

#150000
1aaaaa
b10001 aaaab
1aaaad

#155000
0aaaaa

#160000
1aaaaa
b10010 aaaab
b1010 aaaac
0aaaad

#165000
0aaaaa

#170000
1aaaaa
b10011 aaaab
1aaaad

#175000
0aaaaa

#180000
1aaaaa
b10100 aaaab
b1100 aaaac
0aaaad

#185000
0aaaaa

#190000
1aaaaa
b10101 aaaab
1aaaad

#195000
0aaaaa

#200000
1aaaaa
b10110 aaaab
b1110 aaaac
0aaaad

#205000
0aaaaa

#210000
1aaaaa
b10111 aaaab
1aaaad

#215000
0aaaaa

#220000
1aaaaa
b11000 aaaab
b10000 aaaac
0aaaad

#225000
0aaaaa

#230000
1aaaaa
b11001 aaaab
1aaaad

#235000
0aaaaa

#240000
1aaaaa
b11010 aaaab
b10010 aaaac
0aaaad

#245000
0aaaaa

#250000
1aaaaa
b11011 aaaab
1aaaad

